edu/tmc/uth/ontokeeper/backend/service/OntoKeeperNLGService.class
edu/tmc/uth/ontokeeper/backend/data/Ontology.class
edu/tmc/uth/ontokeeper/backend/DataService.class
edu/tmc/uth/ontokeeper/backend/service/OntoKeeperDataService.class
edu/tmc/uth/ontokeeper/backend/data/Volunteers.class
edu/tmc/uth/ontokeeper/samples/backend/mock/MockDataGenerator.class
edu/tmc/uth/ontokeeper/backend/DataServerService.class
edu/tmc/uth/ontokeeper/samples/backend/data/Category.class
edu/tmc/uth/ontokeeper/samples/backend/mock/MockDataService.class
edu/tmc/uth/ontokeeper/samples/backend/data/Availability.class
edu/tmc/uth/ontokeeper/backend/data/NL.class
edu/tmc/uth/ontokeeper/backend/data/User.class
edu/tmc/uth/ontokeeper/samples/backend/data/Product.class
edu/tmc/uth/ontokeeper/backend/NLGService.class
