edu/tmc/uth/ontokeeper/core/PragmaticPanel$4.class
edu/tmc/uth/ontokeeper/core/ConfigurationPanel$OntologyUploader.class
edu/tmc/uth/ontokeeper/data/SyntacticModel.class
edu/tmc/uth/ontokeeper/data/SemanticModel.class
edu/tmc/uth/ontokeeper/UIOntoKeeper.class
edu/tmc/uth/ontokeeper/login/LoginScreen$2.class
edu/tmc/uth/ontokeeper/SEMSService.class
edu/tmc/uth/ontokeeper/samples/crud/ProductGrid$1.class
edu/tmc/uth/ontokeeper/samples/crud/ProductGrid.class
edu/tmc/uth/ontokeeper/samples/crud/NumberField.class
edu/tmc/uth/ontokeeper/samples/crud/ProductFormDesign.class
edu/tmc/uth/ontokeeper/OntologyService.class
edu/tmc/uth/ontokeeper/main/ErrorView.class
edu/tmc/uth/ontokeeper/core/SocialPanel.class
edu/tmc/uth/ontokeeper/samples/crud/SampleCrudView$1.class
edu/tmc/uth/ontokeeper/samples/crud/ProductForm$4.class
edu/tmc/uth/ontokeeper/data/ontology/Lexicon.class
edu/tmc/uth/ontokeeper/samples/crud/CollectionToStringConverter.class
edu/tmc/uth/ontokeeper/core/PragmaticPanel$TransformToURL.class
edu/tmc/uth/ontokeeper/core/SemanticPanel.class
edu/tmc/uth/ontokeeper/samples/crud/CategoryField$1.class
edu/tmc/uth/ontokeeper/core/PragmaticPanel$EmailPanel.class
edu/tmc/uth/ontokeeper/login/CurrentUser.class
edu/tmc/uth/ontokeeper/core/PragmaticPanel$3$2.class
edu/tmc/uth/ontokeeper/core/PragmaticPanel$3.class
edu/tmc/uth/ontokeeper/core/ProcessPanel.class
edu/tmc/uth/ontokeeper/core/ProcessPanel$1.class
edu/tmc/uth/ontokeeper/renderers/CustomGridComponenets.class
edu/tmc/uth/ontokeeper/core/IntroPanel.class
edu/tmc/uth/ontokeeper/WordNetService.class
edu/tmc/uth/ontokeeper/login/BasicAccessControl.class
edu/tmc/uth/ontokeeper/samples/crud/ProductForm$3.class
edu/tmc/uth/ontokeeper/main/MainScreen$1.class
edu/tmc/uth/ontokeeper/main/Menu$3.class
edu/tmc/uth/ontokeeper/samples/crud/EuroConverter.class
edu/tmc/uth/ontokeeper/core/ExpertPanel.class
edu/tmc/uth/ontokeeper/core/PanelContent.class
edu/tmc/uth/ontokeeper/external/expert/ExpertScreen.class
edu/tmc/uth/ontokeeper/main/Menu$2.class
edu/tmc/uth/ontokeeper/ProjectProfile.class
edu/tmc/uth/ontokeeper/login/LoginScreen.class
edu/tmc/uth/ontokeeper/samples/about/AboutView.class
edu/tmc/uth/ontokeeper/samples/crud/ProductForm$5.class
edu/tmc/uth/ontokeeper/samples/crud/SampleCrudView$3.class
edu/tmc/uth/ontokeeper/core/SummaryPanel.class
edu/tmc/uth/ontokeeper/login/LoginScreen$LoginListener.class
edu/tmc/uth/ontokeeper/main/MainScreen.class
edu/tmc/uth/ontokeeper/UIOntoKeeper$1.class
edu/tmc/uth/ontokeeper/core/SyntacticPanel.class
edu/tmc/uth/ontokeeper/main/Menu.class
edu/tmc/uth/ontokeeper/samples/crud/NumberField$1.class
edu/tmc/uth/ontokeeper/samples/crud/ProductForm$1.class
edu/tmc/uth/ontokeeper/core/PragmaticPanel$2.class
edu/tmc/uth/ontokeeper/login/LoginScreen$1.class
edu/tmc/uth/ontokeeper/data/SEMSAspectQuality.class
edu/tmc/uth/ontokeeper/core/PragmaticPanel.class
edu/tmc/uth/ontokeeper/login/AccessControl.class
edu/tmc/uth/ontokeeper/core/PragmaticPanel$5.class
edu/tmc/uth/ontokeeper/samples/crud/ProductGrid$3.class
edu/tmc/uth/ontokeeper/core/ConfigurationPanel.class
edu/tmc/uth/ontokeeper/data/PragmaticModel.class
edu/tmc/uth/ontokeeper/UIOntoKeeper$UIOntoKeeperServlet.class
edu/tmc/uth/ontokeeper/core/IntroPanel$1.class
edu/tmc/uth/ontokeeper/renderers/SwitchRenderer.class
edu/tmc/uth/ontokeeper/data/ontology/OntologyData.class
edu/tmc/uth/ontokeeper/main/Menu$1.class
edu/tmc/uth/ontokeeper/core/ExpertPanel$1.class
edu/tmc/uth/ontokeeper/samples/crud/ProductForm$2.class
edu/tmc/uth/ontokeeper/samples/crud/CategoryField.class
edu/tmc/uth/ontokeeper/samples/crud/SampleCrudView.class
edu/tmc/uth/ontokeeper/samples/crud/SampleCrudLogic.class
edu/tmc/uth/ontokeeper/core/PragmaticPanel$3$1.class
edu/tmc/uth/ontokeeper/samples/crud/ProductGrid$2.class
edu/tmc/uth/ontokeeper/data/ontology/Statement.class
edu/tmc/uth/ontokeeper/data/SocialModel.class
edu/tmc/uth/ontokeeper/external/expert/ExpertScreen$1.class
edu/tmc/uth/ontokeeper/core/PragmaticPanel$1.class
edu/tmc/uth/ontokeeper/samples/crud/SampleCrudView$2.class
edu/tmc/uth/ontokeeper/samples/crud/ProductForm.class
