edu/tmc/uth/ontokeeper/client/samples/ResetButtonForTextFieldConnector$1.class
edu/tmc/uth/ontokeeper/client/samples/ResetButtonForTextFieldConnector.class
edu/tmc/uth/ontokeeper/samples/AttributeExtensionState.class
edu/tmc/uth/ontokeeper/samples/AttributeExtension.class
edu/tmc/uth/ontokeeper/client/samples/ResetButtonForTextFieldConnector$1$1.class
edu/tmc/uth/ontokeeper/samples/ResetButtonForTextField.class
